"CREATED USER","CALL","SMS","EMAIL","TOTAL REMINDER","CANCELLABLE","PRIVATE REMINDER","CANCEL BY USER","CONFIRM BY USER","PERCENTAGE"
"testdfdf testdsfdfd","0","2","0","2","2","0","0","2","100"
"test test","1","2","1","4","4","0","0","2","50"
"Total:","1","4","1","6","6","0","0","4","67"
